%YAML 1.1
%TAG !u! tag:unity3d.com,2011:
--- !u!114 &11400000
MonoBehaviour:
  m_ObjectHideFlags: 0
  m_PrefabParentObject: {fileID: 0}
  m_PrefabInternal: {fileID: 0}
  m_GameObject: {fileID: 0}
  m_Enabled: 1
  m_EditorHideFlags: 0
  m_Script: {fileID: 11500000, guid: 724cccb71b2642d419bf5a7e7868bfce, type: 3}
  m_Name: Bioms
  m_EditorClassIdentifier: 
  TypeOfBiom:
  - Default
  TypeOfTile:
  - TypeTile: Wall
    Bioms:
    - TypeBiom: Default
      Sprites:
      - Tile: {fileID: 21300000, guid: 98b0db595464fed4e98addf4ed358185, type: 3}
        Pourcent: 100
        Walkable: 0
        Zorder: 5
        Special: {fileID: 0}
      show: 1
    PixelColor: {r: 1, g: 0, b: 0, a: 1}
    show: 0
  - TypeTile: Water
    Bioms:
    - TypeBiom: Default
      Sprites:
      - Tile: {fileID: 21300002, guid: 98b0db595464fed4e98addf4ed358185, type: 3}
        Pourcent: 100
        Walkable: 0
        Zorder: 0
        Special: {fileID: 0}
      show: 1
    PixelColor: {r: 0, g: 0, b: 1, a: 1}
    show: 0
  - TypeTile: Ground
    Bioms:
    - TypeBiom: Default
      Sprites:
      - Tile: {fileID: 21300014, guid: 98b0db595464fed4e98addf4ed358185, type: 3}
        Pourcent: 68
        Walkable: 1
        Zorder: 2
        Special: {fileID: 0}
      - Tile: {fileID: 21300040, guid: 98b0db595464fed4e98addf4ed358185, type: 3}
        Pourcent: 72
        Walkable: 1
        Zorder: 0
        Special: {fileID: 0}
      - Tile: {fileID: 21300042, guid: 98b0db595464fed4e98addf4ed358185, type: 3}
        Pourcent: 76
        Walkable: 1
        Zorder: 0
        Special: {fileID: 0}
      - Tile: {fileID: 21300020, guid: 98b0db595464fed4e98addf4ed358185, type: 3}
        Pourcent: 80
        Walkable: 1
        Zorder: 0
        Special: {fileID: 0}
      - Tile: {fileID: 21300082, guid: 98b0db595464fed4e98addf4ed358185, type: 3}
        Pourcent: 84
        Walkable: 1
        Zorder: 0
        Special: {fileID: 0}
      - Tile: {fileID: 21300084, guid: 98b0db595464fed4e98addf4ed358185, type: 3}
        Pourcent: 88
        Walkable: 1
        Zorder: 0
        Special: {fileID: 0}
      - Tile: {fileID: 21300086, guid: 98b0db595464fed4e98addf4ed358185, type: 3}
        Pourcent: 92
        Walkable: 1
        Zorder: 0
        Special: {fileID: 0}
      - Tile: {fileID: 21300080, guid: 98b0db595464fed4e98addf4ed358185, type: 3}
        Pourcent: 100
        Walkable: 0
        Zorder: 0
        Special: {fileID: 0}
      show: 0
    PixelColor: {r: 1, g: 1, b: 0, a: 1}
    show: 1
  - TypeTile: Black
    Bioms:
    - TypeBiom: Default
      Sprites:
      - Tile: {fileID: 21300022, guid: 98b0db595464fed4e98addf4ed358185, type: 3}
        Pourcent: 100
        Walkable: 0
        Zorder: 7
        Special: {fileID: 0}
      show: 0
    PixelColor: {r: 0, g: 0, b: 0, a: 1}
    show: 0
  - TypeTile: Bridges_01
    Bioms:
    - TypeBiom: Default
      Sprites:
      - Tile: {fileID: 21300028, guid: 98b0db595464fed4e98addf4ed358185, type: 3}
        Pourcent: 100
        Walkable: 1
        Zorder: 2
        Special: {fileID: 0}
      show: 1
    PixelColor: {r: 0, g: .333333343, b: 1, a: 1}
    show: 0
  - TypeTile: Ground_Fall
    Bioms:
    - TypeBiom: Default
      Sprites:
      - Tile: {fileID: 21300024, guid: 98b0db595464fed4e98addf4ed358185, type: 3}
        Pourcent: 100
        Walkable: 0
        Zorder: 1
        Special: {fileID: 0}
      show: 1
    PixelColor: {r: 1, g: .666666687, b: 0, a: 1}
    show: 0
  - TypeTile: Ground_Grass_01
    Bioms:
    - TypeBiom: Default
      Sprites:
      - Tile: {fileID: 21300012, guid: 98b0db595464fed4e98addf4ed358185, type: 3}
        Pourcent: 20
        Walkable: 1
        Zorder: 3
        Special: {fileID: 0}
      - Tile: {fileID: 21300030, guid: 98b0db595464fed4e98addf4ed358185, type: 3}
        Pourcent: 30
        Walkable: 1
        Zorder: 3
        Special: {fileID: 0}
      - Tile: {fileID: 21300018, guid: 98b0db595464fed4e98addf4ed358185, type: 3}
        Pourcent: 40
        Walkable: 1
        Zorder: 3
        Special: {fileID: 0}
      - Tile: {fileID: 21300092, guid: 98b0db595464fed4e98addf4ed358185, type: 3}
        Pourcent: 42
        Walkable: 1
        Zorder: 3
        Special: {fileID: 0}
      - Tile: {fileID: 21300090, guid: 98b0db595464fed4e98addf4ed358185, type: 3}
        Pourcent: 44
        Walkable: 1
        Zorder: 3
        Special: {fileID: 0}
      - Tile: {fileID: 21300094, guid: 98b0db595464fed4e98addf4ed358185, type: 3}
        Pourcent: 46
        Walkable: 1
        Zorder: 3
        Special: {fileID: 0}
      - Tile: {fileID: 21300100, guid: 98b0db595464fed4e98addf4ed358185, type: 3}
        Pourcent: 52
        Walkable: 1
        Zorder: 3
        Special: {fileID: 0}
      - Tile: {fileID: 21300102, guid: 98b0db595464fed4e98addf4ed358185, type: 3}
        Pourcent: 54
        Walkable: 1
        Zorder: 3
        Special: {fileID: 0}
      - Tile: {fileID: 21300008, guid: 98b0db595464fed4e98addf4ed358185, type: 3}
        Pourcent: 100
        Walkable: 1
        Zorder: 3
        Special: {fileID: 0}
      show: 1
    PixelColor: {r: 0, g: 1, b: 0, a: 1}
    show: 0
  - TypeTile: Tree
    Bioms:
    - TypeBiom: Default
      Sprites:
      - Tile: {fileID: 21300016, guid: 98b0db595464fed4e98addf4ed358185, type: 3}
        Pourcent: 100
        Walkable: 0
        Zorder: 5
        Special: {fileID: 0}
      show: 0
    PixelColor: {r: 0, g: .333333343, b: 0, a: 1}
    show: 0
  - TypeTile: Wall_Fall
    Bioms:
    - TypeBiom: Default
      Sprites:
      - Tile: {fileID: 21300026, guid: 98b0db595464fed4e98addf4ed358185, type: 3}
        Pourcent: 100
        Walkable: 0
        Zorder: 2
        Special: {fileID: 0}
      show: 1
    PixelColor: {r: 1, g: .333333343, b: 0, a: 1}
    show: 0
  - TypeTile: Wall_Fire
    Bioms:
    - TypeBiom: Default
      Sprites:
      - Tile: {fileID: 21300006, guid: 98b0db595464fed4e98addf4ed358185, type: 3}
        Pourcent: 30
        Walkable: 0
        Zorder: 2
        Special: {fileID: 0}
      - Tile: {fileID: 21300046, guid: 98b0db595464fed4e98addf4ed358185, type: 3}
        Pourcent: 60
        Walkable: 0
        Zorder: 2
        Special: {fileID: 0}
      - Tile: {fileID: 21300044, guid: 98b0db595464fed4e98addf4ed358185, type: 3}
        Pourcent: 100
        Walkable: 0
        Zorder: 2
        Special: {fileID: 0}
      show: 1
    PixelColor: {r: 1, g: 0, b: 1, a: 1}
    show: 1
  - TypeTile: Bridges_02
    Bioms:
    - TypeBiom: Default
      Sprites:
      - Tile: {fileID: 21300032, guid: 98b0db595464fed4e98addf4ed358185, type: 3}
        Pourcent: 100
        Walkable: 1
        Zorder: 2
        Special: {fileID: 0}
      show: 0
    PixelColor: {r: 0, g: .666666687, b: 1, a: 1}
    show: 0
  - TypeTile: Waterfall
    Bioms:
    - TypeBiom: Default
      Sprites:
      - Tile: {fileID: 21300036, guid: 98b0db595464fed4e98addf4ed358185, type: 3}
        Pourcent: 100
        Walkable: 0
        Zorder: 0
        Special: {fileID: 2100000, guid: f666acdf1823b6944a6e5ded5344ebda, type: 2}
      show: 0
    PixelColor: {r: 0, g: 1, b: 1, a: 1}
    show: 0
  - TypeTile: Ground_Earth
    Bioms:
    - TypeBiom: Default
      Sprites:
      - Tile: {fileID: 21300050, guid: 98b0db595464fed4e98addf4ed358185, type: 3}
        Pourcent: 100
        Walkable: 0
        Zorder: 2
        Special: {fileID: 0}
      show: 0
    PixelColor: {r: 1, g: .333333343, b: 1, a: 1}
    show: 1
  - TypeTile: Ground_Grass_02
    Bioms:
    - TypeBiom: Default
      Sprites:
      - Tile: {fileID: 21300010, guid: 98b0db595464fed4e98addf4ed358185, type: 3}
        Pourcent: 100
        Walkable: 1
        Zorder: 2
        Special: {fileID: 0}
      show: 1
    PixelColor: {r: 0, g: .666666687, b: 0, a: 1}
    show: 1
  MatTile: {fileID: 10754, guid: 0000000000000000e000000000000000, type: 0}
