%YAML 1.1
%TAG !u! tag:unity3d.com,2011:
--- !u!74 &7400000
AnimationClip:
  m_ObjectHideFlags: 0
  m_PrefabParentObject: {fileID: 0}
  m_PrefabInternal: {fileID: 0}
  m_Name: Logo
  serializedVersion: 4
  m_AnimationType: 1
  m_Compressed: 0
  m_UseHighQualityCurve: 1
  m_RotationCurves: []
  m_CompressedRotationCurves: []
  m_PositionCurves:
  - curve:
      serializedVersion: 2
      m_Curve:
      - time: 0
        value: {x: 0, y: 300, z: 0}
        inSlope: {x: 0, y: -479.999969, z: 0}
        outSlope: {x: 0, y: -479.999969, z: 0}
        tangentMode: 112561665
      - time: .583333313
        value: {x: 0, y: 20, z: 0}
        inSlope: {x: 0, y: -264, z: 0}
        outSlope: {x: 0, y: -264, z: 0}
        tangentMode: 0
      - time: .833333313
        value: {x: 0, y: 8, z: 0}
        inSlope: {x: 0, y: 0, z: 0}
        outSlope: {x: 0, y: 0, z: 0}
        tangentMode: 0
      - time: 1
        value: {x: 0, y: 8, z: 0}
        inSlope: {x: 0, y: 0, z: 0}
        outSlope: {x: 0, y: 0, z: 0}
        tangentMode: 0
      m_PreInfinity: 2
      m_PostInfinity: 2
    path: Logo_02
  m_ScaleCurves:
  - curve:
      serializedVersion: 2
      m_Curve:
      - time: 0
        value: {x: 0, y: 0, z: 0}
        inSlope: {x: 3, y: 3, z: 3}
        outSlope: {x: 3, y: 3, z: 3}
        tangentMode: 112561665
      - time: .333333343
        value: {x: 1, y: 1, z: 1}
        inSlope: {x: 2.10000038, y: 2.10000038, z: 2.10000038}
        outSlope: {x: 2.10000038, y: 2.10000038, z: 2.10000038}
        tangentMode: 0
      - time: .416666657
        value: {x: 1.10000002, y: 1.10000002, z: 1.10000002}
        inSlope: {x: .400000244, y: .400000244, z: .400000244}
        outSlope: {x: .400000244, y: .400000244, z: .400000244}
        tangentMode: 0
      - time: .666666687
        value: {x: 1, y: 1, z: 1}
        inSlope: {x: -.400000036, y: -.400000036, z: -.400000036}
        outSlope: {x: -.400000036, y: -.400000036, z: -.400000036}
        tangentMode: 0
      m_PreInfinity: 2
      m_PostInfinity: 2
    path: Logo_01
  - curve:
      serializedVersion: 2
      m_Curve:
      - time: 0
        value: {x: 0, y: 0, z: 0}
        inSlope: {x: 3, y: 3, z: 3}
        outSlope: {x: 3, y: 3, z: 3}
        tangentMode: 112561665
      - time: .333333343
        value: {x: 1, y: 1, z: 1}
        inSlope: {x: 1.5, y: 1.5, z: 1.5}
        outSlope: {x: 1.5, y: 1.5, z: 1.5}
        tangentMode: 0
      - time: 1
        value: {x: 1, y: 1, z: 1}
        inSlope: {x: 0, y: 0, z: 0}
        outSlope: {x: 0, y: 0, z: 0}
        tangentMode: 0
      m_PreInfinity: 2
      m_PostInfinity: 2
    path: Title
  m_FloatCurves: []
  m_PPtrCurves: []
  m_SampleRate: 60
  m_WrapMode: 0
  m_Bounds:
    m_Center: {x: 0, y: 0, z: 0}
    m_Extent: {x: 0, y: 0, z: 0}
  m_AnimationClipSettings:
    serializedVersion: 2
    m_StartTime: 0
    m_StopTime: 1
    m_OrientationOffsetY: 0
    m_Level: 0
    m_CycleOffset: 0
    m_LoopTime: 0
    m_LoopBlend: 0
    m_LoopBlendOrientation: 0
    m_LoopBlendPositionY: 0
    m_LoopBlendPositionXZ: 0
    m_KeepOriginalOrientation: 0
    m_KeepOriginalPositionY: 1
    m_KeepOriginalPositionXZ: 0
    m_HeightFromFeet: 0
    m_Mirror: 0
  m_EditorCurves:
  - curve:
      serializedVersion: 2
      m_Curve:
      - time: 0
        value: 0
        inSlope: 0
        outSlope: 0
        tangentMode: 10
      - time: .583333313
        value: 0
        inSlope: 0
        outSlope: 0
        tangentMode: 10
      - time: 1
        value: 0
        inSlope: 0
        outSlope: 0
        tangentMode: 10
      m_PreInfinity: 2
      m_PostInfinity: 2
    attribute: m_LocalPosition.x
    path: Logo_02
    classID: 4
    script: {fileID: 0}
  - curve:
      serializedVersion: 2
      m_Curve:
      - time: 0
        value: 300
        inSlope: -479.999969
        outSlope: -479.999969
        tangentMode: 10
      - time: .583333373
        value: 20
        inSlope: -264
        outSlope: -264
        tangentMode: 10
      - time: .833333313
        value: 8
        inSlope: 0
        outSlope: 0
        tangentMode: 0
      - time: 1
        value: 8
        inSlope: 0
        outSlope: 0
        tangentMode: 10
      m_PreInfinity: 2
      m_PostInfinity: 2
    attribute: m_LocalPosition.y
    path: Logo_02
    classID: 4
    script: {fileID: 0}
  - curve:
      serializedVersion: 2
      m_Curve:
      - time: 0
        value: 0
        inSlope: 0
        outSlope: 0
        tangentMode: 10
      - time: .583333313
        value: 0
        inSlope: 0
        outSlope: 0
        tangentMode: 10
      - time: 1
        value: 0
        inSlope: 0
        outSlope: 0
        tangentMode: 10
      m_PreInfinity: 2
      m_PostInfinity: 2
    attribute: m_LocalPosition.z
    path: Logo_02
    classID: 4
    script: {fileID: 0}
  - curve:
      serializedVersion: 2
      m_Curve:
      - time: 0
        value: 0
        inSlope: 3
        outSlope: 3
        tangentMode: 10
      - time: .333333343
        value: 1
        inSlope: 2.10000038
        outSlope: 2.10000038
        tangentMode: 10
      - time: .416666657
        value: 1.10000002
        inSlope: .400000244
        outSlope: .400000244
        tangentMode: 10
      - time: .666666687
        value: 1
        inSlope: -.400000036
        outSlope: -.400000036
        tangentMode: 10
      m_PreInfinity: 2
      m_PostInfinity: 2
    attribute: m_LocalScale.x
    path: Logo_01
    classID: 4
    script: {fileID: 0}
  - curve:
      serializedVersion: 2
      m_Curve:
      - time: 0
        value: 0
        inSlope: 3
        outSlope: 3
        tangentMode: 10
      - time: .333333343
        value: 1
        inSlope: 2.10000038
        outSlope: 2.10000038
        tangentMode: 10
      - time: .416666657
        value: 1.10000002
        inSlope: .400000244
        outSlope: .400000244
        tangentMode: 10
      - time: .666666687
        value: 1
        inSlope: -.400000036
        outSlope: -.400000036
        tangentMode: 10
      m_PreInfinity: 2
      m_PostInfinity: 2
    attribute: m_LocalScale.y
    path: Logo_01
    classID: 4
    script: {fileID: 0}
  - curve:
      serializedVersion: 2
      m_Curve:
      - time: 0
        value: 0
        inSlope: 3
        outSlope: 3
        tangentMode: 10
      - time: .333333343
        value: 1
        inSlope: 2.10000038
        outSlope: 2.10000038
        tangentMode: 10
      - time: .416666657
        value: 1.10000002
        inSlope: .400000244
        outSlope: .400000244
        tangentMode: 10
      - time: .666666687
        value: 1
        inSlope: -.400000036
        outSlope: -.400000036
        tangentMode: 10
      m_PreInfinity: 2
      m_PostInfinity: 2
    attribute: m_LocalScale.z
    path: Logo_01
    classID: 4
    script: {fileID: 0}
  - curve:
      serializedVersion: 2
      m_Curve:
      - time: 0
        value: 0
        inSlope: 3
        outSlope: 3
        tangentMode: 10
      - time: .333333343
        value: 1
        inSlope: 1.5
        outSlope: 1.5
        tangentMode: 10
      - time: 1
        value: 1
        inSlope: 0
        outSlope: 0
        tangentMode: 10
      m_PreInfinity: 2
      m_PostInfinity: 2
    attribute: m_LocalScale.x
    path: Title
    classID: 4
    script: {fileID: 0}
  - curve:
      serializedVersion: 2
      m_Curve:
      - time: 0
        value: 0
        inSlope: 3
        outSlope: 3
        tangentMode: 10
      - time: .333333343
        value: 1
        inSlope: 1.5
        outSlope: 1.5
        tangentMode: 10
      - time: 1
        value: 1
        inSlope: 0
        outSlope: 0
        tangentMode: 10
      m_PreInfinity: 2
      m_PostInfinity: 2
    attribute: m_LocalScale.y
    path: Title
    classID: 4
    script: {fileID: 0}
  - curve:
      serializedVersion: 2
      m_Curve:
      - time: 0
        value: 0
        inSlope: 3
        outSlope: 3
        tangentMode: 10
      - time: .333333343
        value: 1
        inSlope: 1.5
        outSlope: 1.5
        tangentMode: 10
      - time: 1
        value: 1
        inSlope: 0
        outSlope: 0
        tangentMode: 10
      m_PreInfinity: 2
      m_PostInfinity: 2
    attribute: m_LocalScale.z
    path: Title
    classID: 4
    script: {fileID: 0}
  m_EulerEditorCurves: []
  m_Events: []
