%YAML 1.1
%TAG !u! tag:unity3d.com,2011:
--- !u!74 &7400000
AnimationClip:
  m_ObjectHideFlags: 0
  m_PrefabParentObject: {fileID: 0}
  m_PrefabInternal: {fileID: 0}
  m_Name: Menu_Modification_VS
  serializedVersion: 4
  m_AnimationType: 1
  m_Compressed: 0
  m_UseHighQualityCurve: 1
  m_RotationCurves: []
  m_CompressedRotationCurves: []
  m_PositionCurves: []
  m_ScaleCurves: []
  m_FloatCurves:
  - curve:
      serializedVersion: 2
      m_Curve:
      - time: 0
        value: .43921569
        inSlope: 0
        outSlope: 0
        tangentMode: 10
      - time: 2
        value: .43921569
        inSlope: 0
        outSlope: 0
        tangentMode: 10
      m_PreInfinity: 2
      m_PostInfinity: 2
    attribute: mColor.r
    path: 
    classID: 114
    script: {fileID: 11500000, guid: e96b31ce75e592f45a1cff563a4869db, type: 3}
  - curve:
      serializedVersion: 2
      m_Curve:
      - time: 0
        value: .0549019612
        inSlope: 0
        outSlope: 0
        tangentMode: 10
      - time: 2
        value: .0549019612
        inSlope: 0
        outSlope: 0
        tangentMode: 10
      m_PreInfinity: 2
      m_PostInfinity: 2
    attribute: mColor.g
    path: 
    classID: 114
    script: {fileID: 11500000, guid: e96b31ce75e592f45a1cff563a4869db, type: 3}
  - curve:
      serializedVersion: 2
      m_Curve:
      - time: 0
        value: .0549019612
        inSlope: 0
        outSlope: 0
        tangentMode: 10
      - time: 2
        value: .0549019612
        inSlope: 0
        outSlope: 0
        tangentMode: 10
      m_PreInfinity: 2
      m_PostInfinity: 2
    attribute: mColor.b
    path: 
    classID: 114
    script: {fileID: 11500000, guid: e96b31ce75e592f45a1cff563a4869db, type: 3}
  - curve:
      serializedVersion: 2
      m_Curve:
      - time: 0
        value: 0
        inSlope: .800000012
        outSlope: .800000012
        tangentMode: 10
      - time: .5
        value: .400000006
        inSlope: .266666651
        outSlope: .266666651
        tangentMode: 10
      - time: 2
        value: 0
        inSlope: -.266666681
        outSlope: -.266666681
        tangentMode: 10
      m_PreInfinity: 2
      m_PostInfinity: 2
    attribute: mColor.a
    path: 
    classID: 114
    script: {fileID: 11500000, guid: e96b31ce75e592f45a1cff563a4869db, type: 3}
  m_PPtrCurves: []
  m_SampleRate: 60
  m_WrapMode: 0
  m_Bounds:
    m_Center: {x: 0, y: 0, z: 0}
    m_Extent: {x: 0, y: 0, z: 0}
  m_AnimationClipSettings:
    serializedVersion: 2
    m_StartTime: 0
    m_StopTime: 2
    m_OrientationOffsetY: 0
    m_Level: 0
    m_CycleOffset: 0
    m_LoopTime: 0
    m_LoopBlend: 0
    m_LoopBlendOrientation: 0
    m_LoopBlendPositionY: 0
    m_LoopBlendPositionXZ: 0
    m_KeepOriginalOrientation: 0
    m_KeepOriginalPositionY: 1
    m_KeepOriginalPositionXZ: 0
    m_HeightFromFeet: 0
    m_Mirror: 0
  m_EditorCurves:
  - curve:
      serializedVersion: 2
      m_Curve:
      - time: 0
        value: .43921569
        inSlope: 0
        outSlope: 0
        tangentMode: 10
      - time: 2
        value: .43921569
        inSlope: 0
        outSlope: 0
        tangentMode: 10
      m_PreInfinity: 2
      m_PostInfinity: 2
    attribute: mColor.r
    path: 
    classID: 114
    script: {fileID: 11500000, guid: e96b31ce75e592f45a1cff563a4869db, type: 3}
  - curve:
      serializedVersion: 2
      m_Curve:
      - time: 0
        value: .0549019612
        inSlope: 0
        outSlope: 0
        tangentMode: 10
      - time: 2
        value: .0549019612
        inSlope: 0
        outSlope: 0
        tangentMode: 10
      m_PreInfinity: 2
      m_PostInfinity: 2
    attribute: mColor.g
    path: 
    classID: 114
    script: {fileID: 11500000, guid: e96b31ce75e592f45a1cff563a4869db, type: 3}
  - curve:
      serializedVersion: 2
      m_Curve:
      - time: 0
        value: .0549019612
        inSlope: 0
        outSlope: 0
        tangentMode: 10
      - time: 2
        value: .0549019612
        inSlope: 0
        outSlope: 0
        tangentMode: 10
      m_PreInfinity: 2
      m_PostInfinity: 2
    attribute: mColor.b
    path: 
    classID: 114
    script: {fileID: 11500000, guid: e96b31ce75e592f45a1cff563a4869db, type: 3}
  - curve:
      serializedVersion: 2
      m_Curve:
      - time: 0
        value: 0
        inSlope: .800000012
        outSlope: .800000012
        tangentMode: 10
      - time: .5
        value: .400000006
        inSlope: .266666651
        outSlope: .266666651
        tangentMode: 10
      - time: 2
        value: 0
        inSlope: -.266666681
        outSlope: -.266666681
        tangentMode: 10
      m_PreInfinity: 2
      m_PostInfinity: 2
    attribute: mColor.a
    path: 
    classID: 114
    script: {fileID: 11500000, guid: e96b31ce75e592f45a1cff563a4869db, type: 3}
  m_EulerEditorCurves: []
  m_Events: []
