%YAML 1.1
%TAG !u! tag:unity3d.com,2011:
--- !u!21 &2100000
Material:
  serializedVersion: 3
  m_ObjectHideFlags: 0
  m_PrefabParentObject: {fileID: 0}
  m_PrefabInternal: {fileID: 0}
  m_Name: Sprite_Water
  m_Shader: {fileID: 4800000, guid: c29ba1b95e2eaab4c9cf0673b4c8a0ea, type: 3}
  m_ShaderKeywords: []
  m_CustomRenderQueue: -1
  m_SavedProperties:
    serializedVersion: 2
    m_TexEnvs:
      data:
        first:
          name: _MainTex
        second:
          m_Texture: {fileID: 2800000, guid: 98b0db595464fed4e98addf4ed358185, type: 3}
          m_Scale: {x: 1, y: 1}
          m_Offset: {x: 0, y: 0}
      data:
        first:
          name: _Effect
        second:
          m_Texture: {fileID: 2800000, guid: 8226b8aa8a70843c1982f3fd7b498c03, type: 3}
          m_Scale: {x: 10, y: 10}
          m_Offset: {x: 0, y: 0}
      data:
        first:
          name: _FX
        second:
          m_Texture: {fileID: 2800000, guid: 990ffec19025ff34bafc6aa4680c1b04, type: 3}
          m_Scale: {x: 4, y: 4}
          m_Offset: {x: 0, y: 0}
    m_Floats: {}
    m_Colors:
      data:
        first:
          name: _Color
        second: {r: 1, g: 0, b: 0, a: 1}
      data:
        first:
          name: _R
        second: {r: .0500000007, g: 1, b: 12, a: 6}
      data:
        first:
          name: _G
        second: {r: -.25, g: 10, b: 6, a: 5}
      data:
        first:
          name: _B
        second: {r: -.0700000003, g: .5, b: 12, a: 5}
      data:
        first:
          name: _R_Color
        second: {r: .970588207, g: .970588207, b: .970588207, a: .568627477}
      data:
        first:
          name: _G_Color
        second: {r: .0593641922, g: .897058845, b: .590402722, a: 1}
      data:
        first:
          name: _B_Color
        second: {r: .587045848, g: .897058845, b: .770370901, a: .443137258}
